// Jest Snapshot v1, https://goo.gl/fbAQLP

exports[`Picker component should render with applied styles 1`] = `
<View
  style={
    Array [
      Object {
        "backgroundColor": "#fff",
        "height": 50,
        "marginTop": 62,
        "width": "100%",
      },
    ]
  }
>
  <RCTPicker
    items={Array []}
    onChange={[Function]}
    onResponderTerminationRequest={[Function]}
    onStartShouldSetResponder={[Function]}
    selectedIndex={0}
    style={
      Array [
        Object {
          "height": 216,
        },
        undefined,
      ]
    }
  />
</View>
`;
